…
    ## # A tibble: 1 × 7
    ##   name               author       rating reviews price year  genre  
    ##   <chr>              <chr>         <dbl>   <dbl> <int> <ord> <chr>  
    ## 1 The Casual Vacancy J.K. Rowling    3.3    9372    12 2012  Fiction

`-` in the `arrange()` function is used to sort in a descending order.
Now for the highest rating.

``` r
amazon %>%
  filter(rating == 4.9) %>%
  arrange(-rating)
```

    ## # A tibble: 52 × 7
    ##    name                                  author rating reviews price year  genre
    ##    <chr>                                 <chr>   <dbl>   <dbl> <int> <ord> <chr>
    ##  1 Brown Bear, Brown Bear, What Do You … Bill …    4.9   14344     5 2017  Fict…
    ##  2 Brown Bear, Brown Bear, What Do You … Bill …    4.9   14344     5 2019  Fict…
    ##  3 Dog Man and Cat Kid: From the Creato… Dav P…    4.9    5062     6 2018  Fict…
    ##  4 Dog Man: A Tale of Two Kitties: From… Dav P…    4.9    4786     8 2017  Fict…
    ##  5 Dog Man: Brawl of the Wild: From the… Dav P…    4.9    7235     4 2018  Fict…
    ##  6 Dog Man: Brawl of the Wild: From the… Dav P…    4.9    7235     4 2019  Fict…
    ##  7 Dog Man: Fetch-22: From the Creator … Dav P…    4.9   12619     8 2019  Fict…
    ##  8 Dog Man: For Whom the Ball Rolls: Fr… Dav P…    4.9    9089     8 2019  Fict…
    ##  9 Dog Man: Lord of the Fleas: From the… Dav P…    4.9    5470     6 2018  Fict…
    ## 10 Goodnight, Goodnight Construction Si… Sherr…    4.9    7038     7 2012  Fict…
    ## # … with 42 more rows
…
